<?xml version="1.0" standalone="no"?>
<!DOCTYPE svg PUBLIC "-//W3C//DTD SVG 20010904//EN"
 "http://www.w3.org/TR/2001/REC-SVG-20010904/DTD/svg10.dtd">
<svg version="1.0" xmlns="http://www.w3.org/2000/svg"
 width="764.000000pt" height="764.000000pt" viewBox="0 0 764.000000 764.000000"
 preserveAspectRatio="xMidYMid meet">
<metadata>
Created by potrace 1.11, written by Peter Selinger 2001-2013
</metadata>
<g transform="translate(0.000000,764.000000) scale(0.100000,-0.100000)"
fill="#000000" stroke="none">
<path d="M4678 7545 c-2 -1 -50 -5 -108 -8 -106 -6 -295 -30 -360 -47 -19 -5
-48 -12 -65 -15 -69 -14 -82 -16 -115 -25 -19 -5 -51 -12 -70 -15 -19 -3 -62
-13 -95 -22 -33 -8 -71 -17 -85 -19 -14 -2 -43 -9 -65 -14 -22 -6 -103 -24
-180 -41 -189 -42 -187 -41 -210 -44 -11 -2 -20 -4 -20 -5 0 -1 -7 -3 -15 -5
-62 -13 -231 -50 -365 -80 -88 -19 -169 -37 -180 -40 -11 -2 -29 -6 -40 -9
-11 -2 -74 -15 -140 -29 -336 -72 -481 -119 -542 -176 -25 -24 -73 -92 -96
-138 -24 -46 -65 -192 -73 -260 -3 -32 -8 -67 -10 -78 -2 -11 -7 -87 -10 -170
-3 -82 -7 -175 -8 -205 -47 -853 -52 -2429 -11 -3240 4 -69 8 -163 10 -210 13
-280 15 -331 20 -390 2 -36 7 -91 10 -122 l7 -57 -56 -58 c-102 -106 -165
-271 -168 -438 -1 -63 15 -305 27 -410 3 -22 7 -69 10 -105 2 -36 6 -81 9
-100 3 -19 8 -73 11 -120 14 -203 71 -342 172 -420 21 -16 45 -30 168 -96 275
-148 613 -236 957 -250 114 -5 136 -3 225 21 126 33 179 65 220 134 37 61 49
115 58 251 3 52 9 98 13 102 4 4 23 9 42 12 19 2 48 9 64 15 37 15 151 104
195 153 39 44 51 47 51 15 -1 -44 11 -233 16 -254 5 -24 27 -34 88 -38 22 -1
52 -7 66 -12 48 -19 144 -4 340 52 107 31 200 58 205 59 102 26 158 56 202
107 12 14 41 31 65 38 24 7 50 16 58 21 19 9 82 24 93 22 4 -1 7 2 7 7 0 6 8
10 18 10 16 0 80 19 207 62 33 11 71 23 85 25 13 3 30 10 37 16 7 6 13 8 13 4
0 -3 15 0 33 7 17 8 35 14 40 15 21 3 94 25 112 34 12 5 27 10 35 12 8 1 47
13 86 25 39 12 84 24 100 26 16 2 29 4 29 5 0 1 11 3 24 6 14 2 30 9 38 15 7
6 13 8 13 4 0 -12 104 69 162 127 70 70 95 118 102 194 3 32 8 79 11 104 6 59
16 175 20 225 1 22 6 83 10 135 4 52 8 113 9 135 2 40 30 95 47 95 5 0 8 3 7
8 0 4 11 33 26 65 43 89 46 128 71 745 4 100 8 208 10 240 25 422 25 1944 0
2482 -2 36 -6 153 -9 260 -4 107 -9 224 -11 260 -5 65 -9 137 -20 330 -24 424
-26 439 -52 530 -28 99 -99 201 -183 262 -107 79 -379 173 -675 234 -84 17
-124 23 -250 38 -22 3 -63 8 -90 11 -53 7 -371 15 -377 10z"/>
</g>
</svg>
